{
  "ac": {
    "addAmpIfSemiPresent": "edge only",
    "addSemiIfAmpPresent": false
  },
  "acute": {
    "addAmpIfSemiPresent": false,
    "addSemiIfAmpPresent": "edge only"
  },
  "Alpha": {
    "addAmpIfSemiPresent": false,
    "addSemiIfAmpPresent": "edge only"
  },
  "alpha": {
    "addAmpIfSemiPresent": false,
    "addSemiIfAmpPresent": "edge only"
  },
  "amp": {
    "addAmpIfSemiPresent": "edge only",
    "addSemiIfAmpPresent": true
  },
  "And": {
    "addAmpIfSemiPresent": false,
    "addSemiIfAmpPresent": true
  },
  "and": {
    "addAmpIfSemiPresent": false,
    "addSemiIfAmpPresent": true
  },
  "ange": {
    "addAmpIfSemiPresent": false,
    "addSemiIfAmpPresent": true
  },
  "angle": {
    "addAmpIfSemiPresent": false,
    "addSemiIfAmpPresent": false
  },
  "angst": {
    "addAmpIfSemiPresent": false,
    "addSemiIfAmpPresent": "edge only"
  },
  "ap": {
    "addAmpIfSemiPresent": false,
    "addSemiIfAmpPresent": "edge only"
  },
  "ape": {
    "addAmpIfSemiPresent": false,
    "addSemiIfAmpPresent": "edge only"
  },
  "approx": {
    "addAmpIfSemiPresent": false,
    "addSemiIfAmpPresent": false
  },
  "Aring": {
    "addAmpIfSemiPresent": false,
    "addSemiIfAmpPresent": "edge only"
  },
  "aring": {
    "addAmpIfSemiPresent": false,
    "addSemiIfAmpPresent": "edge only"
  },
  "Ascr": {
    "addAmpIfSemiPresent": false,
    "addSemiIfAmpPresent": "edge only"
  },
  "ascr": {
    "addAmpIfSemiPresent": false,
    "addSemiIfAmpPresent": "edge only"
  },
  "Assign": {
    "addAmpIfSemiPresent": false,
    "addSemiIfAmpPresent": "edge only"
  },
  "ast": {
    "addAmpIfSemiPresent": false,
    "addSemiIfAmpPresent": false
  },
  "atilde": {
    "addAmpIfSemiPresent": false,
    "addSemiIfAmpPresent": true
  },
  "Backslash": {
    "addAmpIfSemiPresent": false,
    "addSemiIfAmpPresent": "edge only"
  },
  "barwedge": {
    "addAmpIfSemiPresent": false,
    "addSemiIfAmpPresent": "edge only"
  },
  "becaus": {
    "addAmpIfSemiPresent": true,
    "addSemiIfAmpPresent": "edge only"
  },
  "Because": {
    "addAmpIfSemiPresent": false,
    "addSemiIfAmpPresent": false
  },
  "because": {
    "addAmpIfSemiPresent": false,
    "addSemiIfAmpPresent": false
  },
  "bepsi": {
    "addAmpIfSemiPresent": false,
    "addSemiIfAmpPresent": "edge only"
  },
  "Bernoullis": {
    "addAmpIfSemiPresent": false,
    "addSemiIfAmpPresent": "edge only"
  },
  "Beta": {
    "addAmpIfSemiPresent": false,
    "addSemiIfAmpPresent": "edge only"
  },
  "beta": {
    "addAmpIfSemiPresent": false,
    "addSemiIfAmpPresent": false
  },
  "beth": {
    "addAmpIfSemiPresent": false,
    "addSemiIfAmpPresent": "edge only"
  },
  "between": {
    "addAmpIfSemiPresent": false,
    "addSemiIfAmpPresent": false
  },
  "blank": {
    "addAmpIfSemiPresent": false,
    "addSemiIfAmpPresent": false
  },
  "block": {
    "addAmpIfSemiPresent": false,
    "addSemiIfAmpPresent": false
  },
  "bot": {
    "addAmpIfSemiPresent": false,
    "addSemiIfAmpPresent": false
  },
  "bottom": {
    "addAmpIfSemiPresent": false,
    "addSemiIfAmpPresent": false
  },
  "bowtie": {
    "addAmpIfSemiPresent": false,
    "addSemiIfAmpPresent": false
  },
  "breve": {
    "addAmpIfSemiPresent": false,
    "addSemiIfAmpPresent": false
  },
  "bull": {
    "addAmpIfSemiPresent": false,
    "addSemiIfAmpPresent": false
  },
  "bullet": {
    "addAmpIfSemiPresent": false,
    "addSemiIfAmpPresent": false
  },
  "bump": {
    "addAmpIfSemiPresent": false,
    "addSemiIfAmpPresent": false
  },
  "cacute": {
    "addAmpIfSemiPresent": false,
    "addSemiIfAmpPresent": "edge only"
  },
  "Cap": {
    "addAmpIfSemiPresent": false,
    "addSemiIfAmpPresent": "edge only"
  },
  "cap": {
    "addAmpIfSemiPresent": false,
    "addSemiIfAmpPresent": false
  },
  "capand": {
    "addAmpIfSemiPresent": false,
    "addSemiIfAmpPresent": "edge only"
  },
  "caps": {
    "addAmpIfSemiPresent": false,
    "addSemiIfAmpPresent": false
  },
  "caret": {
    "addAmpIfSemiPresent": false,
    "addSemiIfAmpPresent": false
  },
  "caron": {
    "addAmpIfSemiPresent": false,
    "addSemiIfAmpPresent": false
  },
  "cedil": {
    "addAmpIfSemiPresent": false,
    "addSemiIfAmpPresent": false
  },
  "Cedilla": {
    "addAmpIfSemiPresent": false,
    "addSemiIfAmpPresent": "edge only"
  },
  "cent": {
    "addAmpIfSemiPresent": false,
    "addSemiIfAmpPresent": true
  },
  "check": {
    "addAmpIfSemiPresent": false,
    "addSemiIfAmpPresent": false
  },
  "checkmark": {
    "addAmpIfSemiPresent": false,
    "addSemiIfAmpPresent": false
  },
  "Chi": {
    "addAmpIfSemiPresent": false,
    "addSemiIfAmpPresent": false
  },
  "chi": {
    "addAmpIfSemiPresent": false,
    "addSemiIfAmpPresent": false
  },
  "cir": {
    "addAmpIfSemiPresent": false,
    "addSemiIfAmpPresent": "edge only"
  },
  "circ": {
    "addAmpIfSemiPresent": false,
    "addSemiIfAmpPresent": "edge only"
  },
  "clubs": {
    "addAmpIfSemiPresent": false,
    "addSemiIfAmpPresent": false
  },
  "clubsuit": {
    "addAmpIfSemiPresent": false,
    "addSemiIfAmpPresent": false
  },
  "Colon": {
    "addAmpIfSemiPresent": false,
    "addSemiIfAmpPresent": false
  },
  "colon": {
    "addAmpIfSemiPresent": false,
    "addSemiIfAmpPresent": false
  },
  "Colone": {
    "addAmpIfSemiPresent": false,
    "addSemiIfAmpPresent": false
  },
  "colone": {
    "addAmpIfSemiPresent": false,
    "addSemiIfAmpPresent": false
  },
  "comma": {
    "addAmpIfSemiPresent": false,
    "addSemiIfAmpPresent": false
  },
  "commat": {
    "addAmpIfSemiPresent": false,
    "addSemiIfAmpPresent": false
  },
  "comp": {
    "addAmpIfSemiPresent": false,
    "addSemiIfAmpPresent": false
  },
  "complement": {
    "addAmpIfSemiPresent": false,
    "addSemiIfAmpPresent": false
  },
  "complexes": {
    "addAmpIfSemiPresent": false,
    "addSemiIfAmpPresent": false
  },
  "cong": {
    "addAmpIfSemiPresent": false,
    "addSemiIfAmpPresent": false
  },
  "Congruent": {
    "addAmpIfSemiPresent": false,
    "addSemiIfAmpPresent": "edge only"
  },
  "conint": {
    "addAmpIfSemiPresent": false,
    "addSemiIfAmpPresent": false
  },
  "copf": {
    "addAmpIfSemiPresent": false,
    "addSemiIfAmpPresent": false
  },
  "coprod": {
    "addAmpIfSemiPresent": false,
    "addSemiIfAmpPresent": "edge only"
  },
  "COPY": {
    "addAmpIfSemiPresent": false,
    "addSemiIfAmpPresent": "edge only"
  },
  "copy": {
    "addAmpIfSemiPresent": false,
    "addSemiIfAmpPresent": "edge only"
  },
  "Cross": {
    "addAmpIfSemiPresent": false,
    "addSemiIfAmpPresent": "edge only"
  },
  "cross": {
    "addAmpIfSemiPresent": false,
    "addSemiIfAmpPresent": false
  },
  "Cup": {
    "addAmpIfSemiPresent": false,
    "addSemiIfAmpPresent": false
  },
  "cup": {
    "addAmpIfSemiPresent": false,
    "addSemiIfAmpPresent": false
  },
  "cups": {
    "addAmpIfSemiPresent": false,
    "addSemiIfAmpPresent": false
  },
  "Dagger": {
    "addAmpIfSemiPresent": false,
    "addSemiIfAmpPresent": "edge only"
  },
  "dagger": {
    "addAmpIfSemiPresent": false,
    "addSemiIfAmpPresent": false
  },
  "daleth": {
    "addAmpIfSemiPresent": false,
    "addSemiIfAmpPresent": false
  },
  "darr": {
    "addAmpIfSemiPresent": false,
    "addSemiIfAmpPresent": "edge only"
  },
  "dash": {
    "addAmpIfSemiPresent": false,
    "addSemiIfAmpPresent": false
  },
  "DD": {
    "addAmpIfSemiPresent": false,
    "addSemiIfAmpPresent": "edge only"
  },
  "dd": {
    "addAmpIfSemiPresent": false,
    "addSemiIfAmpPresent": "edge only"
  },
  "deg": {
    "addAmpIfSemiPresent": false,
    "addSemiIfAmpPresent": "edge only"
  },
  "Del": {
    "addAmpIfSemiPresent": false,
    "addSemiIfAmpPresent": "edge only"
  },
  "Delta": {
    "addAmpIfSemiPresent": false,
    "addSemiIfAmpPresent": false
  },
  "delta": {
    "addAmpIfSemiPresent": false,
    "addSemiIfAmpPresent": false
  },
  "dharr": {
    "addAmpIfSemiPresent": false,
    "addSemiIfAmpPresent": "edge only"
  },
  "diam": {
    "addAmpIfSemiPresent": false,
    "addSemiIfAmpPresent": "edge only"
  },
  "Diamond": {
    "addAmpIfSemiPresent": false,
    "addSemiIfAmpPresent": false
  },
  "diamond": {
    "addAmpIfSemiPresent": false,
    "addSemiIfAmpPresent": false
  },
  "diams": {
    "addAmpIfSemiPresent": false,
    "addSemiIfAmpPresent": "edge only"
  },
  "die": {
    "addAmpIfSemiPresent": false,
    "addSemiIfAmpPresent": false
  },
  "digamma": {
    "addAmpIfSemiPresent": false,
    "addSemiIfAmpPresent": "edge only"
  },
  "disin": {
    "addAmpIfSemiPresent": false,
    "addSemiIfAmpPresent": "edge only"
  },
  "div": {
    "addAmpIfSemiPresent": false,
    "addSemiIfAmpPresent": false
  },
  "divide": {
    "addAmpIfSemiPresent": false,
    "addSemiIfAmpPresent": false
  },
  "dollar": {
    "addAmpIfSemiPresent": false,
    "addSemiIfAmpPresent": false
  },
  "dopf": {
    "addAmpIfSemiPresent": false,
    "addSemiIfAmpPresent": "edge only"
  },
  "Dot": {
    "addAmpIfSemiPresent": false,
    "addSemiIfAmpPresent": false
  },
  "dot": {
    "addAmpIfSemiPresent": false,
    "addSemiIfAmpPresent": false
  },
  "dsol": {
    "addAmpIfSemiPresent": false,
    "addSemiIfAmpPresent": "edge only"
  },
  "dtri": {
    "addAmpIfSemiPresent": false,
    "addSemiIfAmpPresent": "edge only"
  },
  "easter": {
    "addAmpIfSemiPresent": false,
    "addSemiIfAmpPresent": false
  },
  "ecir": {
    "addAmpIfSemiPresent": false,
    "addSemiIfAmpPresent": "edge only"
  },
  "ecolon": {
    "addAmpIfSemiPresent": false,
    "addSemiIfAmpPresent": "edge only"
  },
  "ecy": {
    "addAmpIfSemiPresent": false,
    "addSemiIfAmpPresent": "edge only"
  },
  "edot": {
    "addAmpIfSemiPresent": false,
    "addSemiIfAmpPresent": "edge only"
  },
  "ee": {
    "addAmpIfSemiPresent": false,
    "addSemiIfAmpPresent": "edge only"
  },
  "efr": {
    "addAmpIfSemiPresent": false,
    "addSemiIfAmpPresent": "edge only"
  },
  "eg": {
    "addAmpIfSemiPresent": false,
    "addSemiIfAmpPresent": "edge only"
  },
  "egrave": {
    "addAmpIfSemiPresent": false,
    "addSemiIfAmpPresent": "edge only"
  },
  "egs": {
    "addAmpIfSemiPresent": false,
    "addSemiIfAmpPresent": "edge only"
  },
  "el": {
    "addAmpIfSemiPresent": false,
    "addSemiIfAmpPresent": "edge only"
  },
  "ell": {
    "addAmpIfSemiPresent": false,
    "addSemiIfAmpPresent": "edge only"
  },
  "els": {
    "addAmpIfSemiPresent": false,
    "addSemiIfAmpPresent": "edge only"
  },
  "empty": {
    "addAmpIfSemiPresent": false,
    "addSemiIfAmpPresent": false
  },
  "ENG": {
    "addAmpIfSemiPresent": false,
    "addSemiIfAmpPresent": false
  },
  "eng": {
    "addAmpIfSemiPresent": false,
    "addSemiIfAmpPresent": false
  },
  "epsi": {
    "addAmpIfSemiPresent": false,
    "addSemiIfAmpPresent": false
  },
  "Epsilon": {
    "addAmpIfSemiPresent": false,
    "addSemiIfAmpPresent": false
  },
  "epsilon": {
    "addAmpIfSemiPresent": false,
    "addSemiIfAmpPresent": false
  },
  "Equal": {
    "addAmpIfSemiPresent": false,
    "addSemiIfAmpPresent": false
  },
  "equals": {
    "addAmpIfSemiPresent": false,
    "addSemiIfAmpPresent": false
  },
  "equest": {
    "addAmpIfSemiPresent": false,
    "addSemiIfAmpPresent": "edge only"
  },
  "Equilibrium": {
    "addAmpIfSemiPresent": false,
    "addSemiIfAmpPresent": false
  },
  "equiv": {
    "addAmpIfSemiPresent": false,
    "addSemiIfAmpPresent": false
  },
  "escr": {
    "addAmpIfSemiPresent": false,
    "addSemiIfAmpPresent": "edge only"
  },
  "esim": {
    "addAmpIfSemiPresent": false,
    "addSemiIfAmpPresent": "edge only"
  },
  "Eta": {
    "addAmpIfSemiPresent": false,
    "addSemiIfAmpPresent": "edge only"
  },
  "eta": {
    "addAmpIfSemiPresent": false,
    "addSemiIfAmpPresent": "edge only"
  },
  "ETH": {
    "addAmpIfSemiPresent": false,
    "addSemiIfAmpPresent": "edge only"
  },
  "eth": {
    "addAmpIfSemiPresent": false,
    "addSemiIfAmpPresent": false
  },
  "euro": {
    "addAmpIfSemiPresent": false,
    "addSemiIfAmpPresent": false
  },
  "excl": {
    "addAmpIfSemiPresent": false,
    "addSemiIfAmpPresent": false
  },
  "exist": {
    "addAmpIfSemiPresent": false,
    "addSemiIfAmpPresent": false
  },
  "Exists": {
    "addAmpIfSemiPresent": false,
    "addSemiIfAmpPresent": false
  },
  "expectation": {
    "addAmpIfSemiPresent": false,
    "addSemiIfAmpPresent": false
  },
  "female": {
    "addAmpIfSemiPresent": false,
    "addSemiIfAmpPresent": false
  },
  "flat": {
    "addAmpIfSemiPresent": false,
    "addSemiIfAmpPresent": false
  },
  "fork": {
    "addAmpIfSemiPresent": false,
    "addSemiIfAmpPresent": false
  },
  "frown": {
    "addAmpIfSemiPresent": false,
    "addSemiIfAmpPresent": false
  },
  "Gamma": {
    "addAmpIfSemiPresent": false,
    "addSemiIfAmpPresent": false
  },
  "gamma": {
    "addAmpIfSemiPresent": false,
    "addSemiIfAmpPresent": false
  },
  "gap": {
    "addAmpIfSemiPresent": false,
    "addSemiIfAmpPresent": false
  },
  "gcy": {
    "addAmpIfSemiPresent": false,
    "addSemiIfAmpPresent": "edge only"
  },
  "ge": {
    "addAmpIfSemiPresent": false,
    "addSemiIfAmpPresent": "edge only"
  },
  "gel": {
    "addAmpIfSemiPresent": false,
    "addSemiIfAmpPresent": false
  },
  "geq": {
    "addAmpIfSemiPresent": false,
    "addSemiIfAmpPresent": "edge only"
  },
  "ges": {
    "addAmpIfSemiPresent": false,
    "addSemiIfAmpPresent": "edge only"
  },
  "gesl": {
    "addAmpIfSemiPresent": false,
    "addSemiIfAmpPresent": "edge only"
  },
  "gg": {
    "addAmpIfSemiPresent": false,
    "addSemiIfAmpPresent": "edge only"
  },
  "gl": {
    "addAmpIfSemiPresent": false,
    "addSemiIfAmpPresent": "edge only"
  },
  "gla": {
    "addAmpIfSemiPresent": false,
    "addSemiIfAmpPresent": "edge only"
  },
  "gne": {
    "addAmpIfSemiPresent": false,
    "addSemiIfAmpPresent": "edge only"
  },
  "grave": {
    "addAmpIfSemiPresent": false,
    "addSemiIfAmpPresent": false
  },
  "GT": {
    "addAmpIfSemiPresent": false,
    "addSemiIfAmpPresent": "edge only"
  },
  "gt": {
    "addAmpIfSemiPresent": false,
    "addSemiIfAmpPresent": "edge only"
  },
  "half": {
    "addAmpIfSemiPresent": false,
    "addSemiIfAmpPresent": false
  },
  "Hat": {
    "addAmpIfSemiPresent": false,
    "addSemiIfAmpPresent": false
  },
  "hearts": {
    "addAmpIfSemiPresent": false,
    "addSemiIfAmpPresent": false
  },
  "hopf": {
    "addAmpIfSemiPresent": false,
    "addSemiIfAmpPresent": "edge only"
  },
  "hyphen": {
    "addAmpIfSemiPresent": false,
    "addSemiIfAmpPresent": false
  },
  "ic": {
    "addAmpIfSemiPresent": false,
    "addSemiIfAmpPresent": "edge only"
  },
  "icy": {
    "addAmpIfSemiPresent": false,
    "addSemiIfAmpPresent": "edge only"
  },
  "iff": {
    "addAmpIfSemiPresent": false,
    "addSemiIfAmpPresent": "edge only"
  },
  "ii": {
    "addAmpIfSemiPresent": false,
    "addSemiIfAmpPresent": "edge only"
  },
  "image": {
    "addAmpIfSemiPresent": false,
    "addSemiIfAmpPresent": false
  },
  "imped": {
    "addAmpIfSemiPresent": false,
    "addSemiIfAmpPresent": "edge only"
  },
  "in": {
    "addAmpIfSemiPresent": false,
    "addSemiIfAmpPresent": false
  },
  "int": {
    "addAmpIfSemiPresent": false,
    "addSemiIfAmpPresent": "edge only"
  },
  "integers": {
    "addAmpIfSemiPresent": false,
    "addSemiIfAmpPresent": false
  },
  "iocy": {
    "addAmpIfSemiPresent": false,
    "addSemiIfAmpPresent": "edge only"
  },
  "iogon": {
    "addAmpIfSemiPresent": false,
    "addSemiIfAmpPresent": "edge only"
  },
  "iota": {
    "addAmpIfSemiPresent": false,
    "addSemiIfAmpPresent": false
  },
  "isin": {
    "addAmpIfSemiPresent": false,
    "addSemiIfAmpPresent": "edge only"
  },
  "it": {
    "addAmpIfSemiPresent": false,
    "addSemiIfAmpPresent": false
  },
  "Kappa": {
    "addAmpIfSemiPresent": false,
    "addSemiIfAmpPresent": false
  },
  "kappa": {
    "addAmpIfSemiPresent": false,
    "addSemiIfAmpPresent": false
  },
  "kopf": {
    "addAmpIfSemiPresent": false,
    "addSemiIfAmpPresent": false
  },
  "Lambda": {
    "addAmpIfSemiPresent": false,
    "addSemiIfAmpPresent": false
  },
  "lambda": {
    "addAmpIfSemiPresent": false,
    "addSemiIfAmpPresent": false
  },
  "lang": {
    "addAmpIfSemiPresent": false,
    "addSemiIfAmpPresent": false
  },
  "lap": {
    "addAmpIfSemiPresent": false,
    "addSemiIfAmpPresent": false
  },
  "lat": {
    "addAmpIfSemiPresent": false,
    "addSemiIfAmpPresent": false
  },
  "late": {
    "addAmpIfSemiPresent": false,
    "addSemiIfAmpPresent": false
  },
  "lates": {
    "addAmpIfSemiPresent": false,
    "addSemiIfAmpPresent": false
  },
  "le": {
    "addAmpIfSemiPresent": false,
    "addSemiIfAmpPresent": "edge only"
  },
  "leg": {
    "addAmpIfSemiPresent": false,
    "addSemiIfAmpPresent": false
  },
  "leq": {
    "addAmpIfSemiPresent": false,
    "addSemiIfAmpPresent": "edge only"
  },
  "les": {
    "addAmpIfSemiPresent": false,
    "addSemiIfAmpPresent": false
  },
  "lg": {
    "addAmpIfSemiPresent": false,
    "addSemiIfAmpPresent": "edge only"
  },
  "ll": {
    "addAmpIfSemiPresent": false,
    "addSemiIfAmpPresent": "edge only"
  },
  "lne": {
    "addAmpIfSemiPresent": false,
    "addSemiIfAmpPresent": "edge only"
  },
  "lozenge": {
    "addAmpIfSemiPresent": false,
    "addSemiIfAmpPresent": false
  },
  "lsh": {
    "addAmpIfSemiPresent": false,
    "addSemiIfAmpPresent": "edge only"
  },
  "LT": {
    "addAmpIfSemiPresent": false,
    "addSemiIfAmpPresent": false
  },
  "lt": {
    "addAmpIfSemiPresent": false,
    "addSemiIfAmpPresent": "edge only"
  },
  "ltimes": {
    "addAmpIfSemiPresent": false,
    "addSemiIfAmpPresent": true
  },
  "male": {
    "addAmpIfSemiPresent": false,
    "addSemiIfAmpPresent": false
  },
  "malt": {
    "addAmpIfSemiPresent": false,
    "addSemiIfAmpPresent": false
  },
  "map": {
    "addAmpIfSemiPresent": false,
    "addSemiIfAmpPresent": false
  },
  "marker": {
    "addAmpIfSemiPresent": false,
    "addSemiIfAmpPresent": false
  },
  "mid": {
    "addAmpIfSemiPresent": false,
    "addSemiIfAmpPresent": false
  },
  "minus": {
    "addAmpIfSemiPresent": false,
    "addSemiIfAmpPresent": false
  },
  "models": {
    "addAmpIfSemiPresent": false,
    "addSemiIfAmpPresent": false
  },
  "mp": {
    "addAmpIfSemiPresent": false,
    "addSemiIfAmpPresent": "edge only"
  },
  "mu": {
    "addAmpIfSemiPresent": false,
    "addSemiIfAmpPresent": false
  },
  "nang": {
    "addAmpIfSemiPresent": false,
    "addSemiIfAmpPresent": "edge only"
  },
  "nap": {
    "addAmpIfSemiPresent": false,
    "addSemiIfAmpPresent": false
  },
  "natural": {
    "addAmpIfSemiPresent": false,
    "addSemiIfAmpPresent": false
  },
  "naturals": {
    "addAmpIfSemiPresent": false,
    "addSemiIfAmpPresent": false
  },
  "ncy": {
    "addAmpIfSemiPresent": false,
    "addSemiIfAmpPresent": "edge only"
  },
  "ne": {
    "addAmpIfSemiPresent": false,
    "addSemiIfAmpPresent": "edge only"
  },
  "nge": {
    "addAmpIfSemiPresent": false,
    "addSemiIfAmpPresent": "edge only"
  },
  "ngt": {
    "addAmpIfSemiPresent": false,
    "addSemiIfAmpPresent": "edge only"
  },
  "ni": {
    "addAmpIfSemiPresent": false,
    "addSemiIfAmpPresent": "edge only"
  },
  "nis": {
    "addAmpIfSemiPresent": false,
    "addSemiIfAmpPresent": "edge only"
  },
  "nle": {
    "addAmpIfSemiPresent": false,
    "addSemiIfAmpPresent": "edge only"
  },
  "nles": {
    "addAmpIfSemiPresent": false,
    "addSemiIfAmpPresent": "edge only"
  },
  "nless": {
    "addAmpIfSemiPresent": false,
    "addSemiIfAmpPresent": "edge only"
  },
  "nlt": {
    "addAmpIfSemiPresent": false,
    "addSemiIfAmpPresent": "edge only"
  },
  "nopf": {
    "addAmpIfSemiPresent": false,
    "addSemiIfAmpPresent": "edge only"
  },
  "Not": {
    "addAmpIfSemiPresent": false,
    "addSemiIfAmpPresent": false
  },
  "not": {
    "addAmpIfSemiPresent": false,
    "addSemiIfAmpPresent": false
  },
  "nsc": {
    "addAmpIfSemiPresent": false,
    "addSemiIfAmpPresent": "edge only"
  },
  "nsce": {
    "addAmpIfSemiPresent": false,
    "addSemiIfAmpPresent": "edge only"
  },
  "nu": {
    "addAmpIfSemiPresent": false,
    "addSemiIfAmpPresent": false
  },
  "num": {
    "addAmpIfSemiPresent": false,
    "addSemiIfAmpPresent": false
  },
  "ogt": {
    "addAmpIfSemiPresent": false,
    "addSemiIfAmpPresent": "edge only"
  },
  "ohm": {
    "addAmpIfSemiPresent": false,
    "addSemiIfAmpPresent": false
  },
  "oline": {
    "addAmpIfSemiPresent": false,
    "addSemiIfAmpPresent": "edge only"
  },
  "olt": {
    "addAmpIfSemiPresent": false,
    "addSemiIfAmpPresent": "edge only"
  },
  "Omega": {
    "addAmpIfSemiPresent": false,
    "addSemiIfAmpPresent": false
  },
  "omega": {
    "addAmpIfSemiPresent": false,
    "addSemiIfAmpPresent": false
  },
  "Omicron": {
    "addAmpIfSemiPresent": false,
    "addSemiIfAmpPresent": false
  },
  "omicron": {
    "addAmpIfSemiPresent": false,
    "addSemiIfAmpPresent": false
  },
  "oopf": {
    "addAmpIfSemiPresent": false,
    "addSemiIfAmpPresent": "edge only"
  },
  "opar": {
    "addAmpIfSemiPresent": false,
    "addSemiIfAmpPresent": "edge only"
  },
  "or": {
    "addAmpIfSemiPresent": false,
    "addSemiIfAmpPresent": false
  },
  "order": {
    "addAmpIfSemiPresent": false,
    "addSemiIfAmpPresent": false
  },
  "oror": {
    "addAmpIfSemiPresent": false,
    "addSemiIfAmpPresent": "edge only"
  },
  "orv": {
    "addAmpIfSemiPresent": false,
    "addSemiIfAmpPresent": "edge only"
  },
  "osol": {
    "addAmpIfSemiPresent": false,
    "addSemiIfAmpPresent": "edge only"
  },
  "par": {
    "addAmpIfSemiPresent": false,
    "addSemiIfAmpPresent": "edge only"
  },
  "para": {
    "addAmpIfSemiPresent": false,
    "addSemiIfAmpPresent": false
  },
  "parallel": {
    "addAmpIfSemiPresent": false,
    "addSemiIfAmpPresent": false
  },
  "part": {
    "addAmpIfSemiPresent": false,
    "addSemiIfAmpPresent": false
  },
  "phi": {
    "addAmpIfSemiPresent": false,
    "addSemiIfAmpPresent": false
  },
  "phone": {
    "addAmpIfSemiPresent": false,
    "addSemiIfAmpPresent": false
  },
  "Pi": {
    "addAmpIfSemiPresent": false,
    "addSemiIfAmpPresent": false
  },
  "pi": {
    "addAmpIfSemiPresent": false,
    "addSemiIfAmpPresent": false
  },
  "pitchfork": {
    "addAmpIfSemiPresent": false,
    "addSemiIfAmpPresent": false
  },
  "plus": {
    "addAmpIfSemiPresent": false,
    "addSemiIfAmpPresent": false
  },
  "pm": {
    "addAmpIfSemiPresent": false,
    "addSemiIfAmpPresent": false
  },
  "popf": {
    "addAmpIfSemiPresent": false,
    "addSemiIfAmpPresent": "edge only"
  },
  "pound": {
    "addAmpIfSemiPresent": false,
    "addSemiIfAmpPresent": false
  },
  "pr": {
    "addAmpIfSemiPresent": false,
    "addSemiIfAmpPresent": false
  },
  "prime": {
    "addAmpIfSemiPresent": false,
    "addSemiIfAmpPresent": false
  },
  "primes": {
    "addAmpIfSemiPresent": false,
    "addSemiIfAmpPresent": false
  },
  "prod": {
    "addAmpIfSemiPresent": false,
    "addSemiIfAmpPresent": false
  },
  "Product": {
    "addAmpIfSemiPresent": false,
    "addSemiIfAmpPresent": false
  },
  "prop": {
    "addAmpIfSemiPresent": false,
    "addSemiIfAmpPresent": false
  },
  "Proportion": {
    "addAmpIfSemiPresent": false,
    "addSemiIfAmpPresent": false
  },
  "Proportional": {
    "addAmpIfSemiPresent": false,
    "addSemiIfAmpPresent": false
  },
  "psi": {
    "addAmpIfSemiPresent": false,
    "addSemiIfAmpPresent": false
  },
  "quest": {
    "addAmpIfSemiPresent": false,
    "addSemiIfAmpPresent": false
  },
  "QUOT": {
    "addAmpIfSemiPresent": false,
    "addSemiIfAmpPresent": false
  },
  "quot": {
    "addAmpIfSemiPresent": false,
    "addSemiIfAmpPresent": false
  },
  "race": {
    "addAmpIfSemiPresent": false,
    "addSemiIfAmpPresent": false
  },
  "rang": {
    "addAmpIfSemiPresent": false,
    "addSemiIfAmpPresent": false
  },
  "range": {
    "addAmpIfSemiPresent": false,
    "addSemiIfAmpPresent": false
  },
  "ratio": {
    "addAmpIfSemiPresent": false,
    "addSemiIfAmpPresent": false
  },
  "Re": {
    "addAmpIfSemiPresent": false,
    "addSemiIfAmpPresent": false
  },
  "real": {
    "addAmpIfSemiPresent": false,
    "addSemiIfAmpPresent": false
  },
  "reals": {
    "addAmpIfSemiPresent": false,
    "addSemiIfAmpPresent": false
  },
  "rect": {
    "addAmpIfSemiPresent": false,
    "addSemiIfAmpPresent": false
  },
  "REG": {
    "addAmpIfSemiPresent": false,
    "addSemiIfAmpPresent": true
  },
  "reg": {
    "addAmpIfSemiPresent": false,
    "addSemiIfAmpPresent": "edge only"
  },
  "ring": {
    "addAmpIfSemiPresent": false,
    "addSemiIfAmpPresent": false
  },
  "rsh": {
    "addAmpIfSemiPresent": false,
    "addSemiIfAmpPresent": "edge only"
  },
  "sc": {
    "addAmpIfSemiPresent": false,
    "addSemiIfAmpPresent": "edge only"
  },
  "scap": {
    "addAmpIfSemiPresent": false,
    "addSemiIfAmpPresent": "edge only"
  },
  "sce": {
    "addAmpIfSemiPresent": false,
    "addSemiIfAmpPresent": "edge only"
  },
  "scy": {
    "addAmpIfSemiPresent": false,
    "addSemiIfAmpPresent": "edge only"
  },
  "sdot": {
    "addAmpIfSemiPresent": false,
    "addSemiIfAmpPresent": "edge only"
  },
  "sect": {
    "addAmpIfSemiPresent": false,
    "addSemiIfAmpPresent": false
  },
  "semi": {
    "addAmpIfSemiPresent": false,
    "addSemiIfAmpPresent": false
  },
  "sharp": {
    "addAmpIfSemiPresent": false,
    "addSemiIfAmpPresent": false
  },
  "shy": {
    "addAmpIfSemiPresent": false,
    "addSemiIfAmpPresent": false
  },
  "Sigma": {
    "addAmpIfSemiPresent": false,
    "addSemiIfAmpPresent": false
  },
  "sigma": {
    "addAmpIfSemiPresent": false,
    "addSemiIfAmpPresent": false
  },
  "sim": {
    "addAmpIfSemiPresent": false,
    "addSemiIfAmpPresent": false
  },
  "sol": {
    "addAmpIfSemiPresent": false,
    "addSemiIfAmpPresent": false
  },
  "spades": {
    "addAmpIfSemiPresent": false,
    "addSemiIfAmpPresent": false
  },
  "square": {
    "addAmpIfSemiPresent": false,
    "addSemiIfAmpPresent": false
  },
  "Star": {
    "addAmpIfSemiPresent": false,
    "addSemiIfAmpPresent": false
  },
  "star": {
    "addAmpIfSemiPresent": false,
    "addSemiIfAmpPresent": false
  },
  "Sub": {
    "addAmpIfSemiPresent": false,
    "addSemiIfAmpPresent": false
  },
  "sub": {
    "addAmpIfSemiPresent": false,
    "addSemiIfAmpPresent": false
  },
  "sube": {
    "addAmpIfSemiPresent": false,
    "addSemiIfAmpPresent": false
  },
  "Sum": {
    "addAmpIfSemiPresent": false,
    "addSemiIfAmpPresent": false
  },
  "sum": {
    "addAmpIfSemiPresent": false,
    "addSemiIfAmpPresent": false
  },
  "Tab": {
    "addAmpIfSemiPresent": false,
    "addSemiIfAmpPresent": false
  },
  "target": {
    "addAmpIfSemiPresent": false,
    "addSemiIfAmpPresent": false
  },
  "Tau": {
    "addAmpIfSemiPresent": false,
    "addSemiIfAmpPresent": false
  },
  "tau": {
    "addAmpIfSemiPresent": false,
    "addSemiIfAmpPresent": false
  },
  "therefore": {
    "addAmpIfSemiPresent": false,
    "addSemiIfAmpPresent": false
  },
  "Theta": {
    "addAmpIfSemiPresent": false,
    "addSemiIfAmpPresent": false
  },
  "theta": {
    "addAmpIfSemiPresent": false,
    "addSemiIfAmpPresent": false
  },
  "THORN": {
    "addAmpIfSemiPresent": false,
    "addSemiIfAmpPresent": false
  },
  "thorn": {
    "addAmpIfSemiPresent": false,
    "addSemiIfAmpPresent": false
  },
  "Tilde": {
    "addAmpIfSemiPresent": false,
    "addSemiIfAmpPresent": false
  },
  "tilde": {
    "addAmpIfSemiPresent": false,
    "addSemiIfAmpPresent": false
  },
  "times": {
    "addAmpIfSemiPresent": false,
    "addSemiIfAmpPresent": false
  },
  "tint": {
    "addAmpIfSemiPresent": false,
    "addSemiIfAmpPresent": false
  },
  "top": {
    "addAmpIfSemiPresent": false,
    "addSemiIfAmpPresent": false
  },
  "tosa": {
    "addAmpIfSemiPresent": false,
    "addSemiIfAmpPresent": "edge only"
  },
  "TRADE": {
    "addAmpIfSemiPresent": false,
    "addSemiIfAmpPresent": "edge only"
  },
  "trade": {
    "addAmpIfSemiPresent": false,
    "addSemiIfAmpPresent": "edge only"
  },
  "triangle": {
    "addAmpIfSemiPresent": false,
    "addSemiIfAmpPresent": false
  },
  "trie": {
    "addAmpIfSemiPresent": false,
    "addSemiIfAmpPresent": "edge only"
  },
  "ucy": {
    "addAmpIfSemiPresent": false,
    "addSemiIfAmpPresent": "edge only"
  },
  "uml": {
    "addAmpIfSemiPresent": false,
    "addSemiIfAmpPresent": false
  },
  "Union": {
    "addAmpIfSemiPresent": false,
    "addSemiIfAmpPresent": false
  },
  "uplus": {
    "addAmpIfSemiPresent": false,
    "addSemiIfAmpPresent": "edge only"
  },
  "Upsi": {
    "addAmpIfSemiPresent": false,
    "addSemiIfAmpPresent": "edge only"
  },
  "upsi": {
    "addAmpIfSemiPresent": false,
    "addSemiIfAmpPresent": "edge only"
  },
  "uring": {
    "addAmpIfSemiPresent": false,
    "addSemiIfAmpPresent": "edge only"
  },
  "vee": {
    "addAmpIfSemiPresent": false,
    "addSemiIfAmpPresent": "edge only"
  },
  "Vert": {
    "addAmpIfSemiPresent": false,
    "addSemiIfAmpPresent": "edge only"
  },
  "vert": {
    "addAmpIfSemiPresent": false,
    "addSemiIfAmpPresent": "edge only"
  },
  "wedge": {
    "addAmpIfSemiPresent": false,
    "addSemiIfAmpPresent": false
  },
  "Wedge": {
    "addAmpIfSemiPresent": false,
    "addSemiIfAmpPresent": false
  },
  "wreath": {
    "addAmpIfSemiPresent": false,
    "addSemiIfAmpPresent": false
  },
  "Xi": {
    "addAmpIfSemiPresent": false,
    "addSemiIfAmpPresent": false
  },
  "xi": {
    "addAmpIfSemiPresent": false,
    "addSemiIfAmpPresent": false
  },
  "Ycirc": {
    "addAmpIfSemiPresent": false,
    "addSemiIfAmpPresent": "edge only"
  },
  "ycirc": {
    "addAmpIfSemiPresent": false,
    "addSemiIfAmpPresent": "edge only"
  },
  "ycy": {
    "addAmpIfSemiPresent": false,
    "addSemiIfAmpPresent": "edge only"
  },
  "yen": {
    "addAmpIfSemiPresent": false,
    "addSemiIfAmpPresent": false
  },
  "Zacute": {
    "addAmpIfSemiPresent": false,
    "addSemiIfAmpPresent": "edge only"
  },
  "zacute": {
    "addAmpIfSemiPresent": false,
    "addSemiIfAmpPresent": "edge only"
  },
  "Zeta": {
    "addAmpIfSemiPresent": false,
    "addSemiIfAmpPresent": false
  },
  "zeta": {
    "addAmpIfSemiPresent": false,
    "addSemiIfAmpPresent": false
  }
}
